^C:\USERS\PHILIP\DROPBOX\CODE\TEMPLATES\POPUPTEMPLATE\COMMON.CPP|C:\USERS\PHILIP\DROPBOX\CODE\TEMPLATES\POPUPTEMPLATE\DEBUG.CPP|C:\USERS\PHILIP\DROPBOX\CODE\TEMPLATES\POPUPTEMPLATE\MAIN.CPP
C:\USERS\PHILIP\DROPBOX\CODE\TEMPLATES\POPUPTEMPLATE\DEBUG\VC120.PDB
C:\USERS\PHILIP\DROPBOX\CODE\TEMPLATES\POPUPTEMPLATE\DEBUG\VC120.IDB
C:\USERS\PHILIP\DROPBOX\CODE\TEMPLATES\POPUPTEMPLATE\DEBUG\COMMON.OBJ
C:\USERS\PHILIP\DROPBOX\CODE\TEMPLATES\POPUPTEMPLATE\DEBUG\DEBUG.OBJ
C:\USERS\PHILIP\DROPBOX\CODE\TEMPLATES\POPUPTEMPLATE\DEBUG\MAIN.OBJ
^C:\USERS\PHILIP\DROPBOX\CODE\TEMPLATES\POPUPTEMPLATE\COMMON.CPP
C:\USERS\PHILIP\DROPBOX\CODE\TEMPLATES\POPUPTEMPLATE\DEBUG\VC120.PDB
C:\USERS\PHILIP\DROPBOX\CODE\TEMPLATES\POPUPTEMPLATE\DEBUG\VC120.IDB
^C:\USERS\PHILIP\DROPBOX\CODE\TEMPLATES\POPUPTEMPLATE\DEBUG.CPP
C:\USERS\PHILIP\DROPBOX\CODE\TEMPLATES\POPUPTEMPLATE\DEBUG\VC120.PDB
C:\USERS\PHILIP\DROPBOX\CODE\TEMPLATES\POPUPTEMPLATE\DEBUG\VC120.IDB
^C:\USERS\PHILIP\DROPBOX\CODE\TEMPLATES\POPUPTEMPLATE\MAIN.CPP
C:\USERS\PHILIP\DROPBOX\CODE\TEMPLATES\POPUPTEMPLATE\DEBUG\VC120.PDB
C:\USERS\PHILIP\DROPBOX\CODE\TEMPLATES\POPUPTEMPLATE\DEBUG\VC120.IDB
C:\USERS\PHILIP\DROPBOX\CODE\TEMPLATES\POPUPTEMPLATE\DEBUG\MAIN.OBJ
^C:\USERS\PHILIP\DROPBOX\CODE\TEMPLATES\POPUPTEMPLATE\COMMON.CPP|C:\USERS\PHILIP\DROPBOX\CODE\TEMPLATES\POPUPTEMPLATE\DEBUG.CPP
C:\USERS\PHILIP\DROPBOX\CODE\TEMPLATES\POPUPTEMPLATE\DEBUG\VC120.PDB
C:\USERS\PHILIP\DROPBOX\CODE\TEMPLATES\POPUPTEMPLATE\DEBUG\VC120.IDB
^C:\USERS\PHILIP\DROPBOX\CODE\TEMPLATES\POPUPTEMPLATE\COMMON.CPP|C:\USERS\PHILIP\DROPBOX\CODE\TEMPLATES\POPUPTEMPLATE\MAIN.CPP
C:\USERS\PHILIP\DROPBOX\CODE\TEMPLATES\POPUPTEMPLATE\DEBUG\VC120.PDB
C:\USERS\PHILIP\DROPBOX\CODE\TEMPLATES\POPUPTEMPLATE\DEBUG\VC120.IDB
C:\USERS\PHILIP\DROPBOX\CODE\TEMPLATES\POPUPTEMPLATE\DEBUG\MAIN.OBJ
^C:\USERS\PHILIP\DROPBOX\CODE\TEMPLATES\POPUPTEMPLATE\DEBUG.CPP|C:\USERS\PHILIP\DROPBOX\CODE\TEMPLATES\POPUPTEMPLATE\MAIN.CPP
C:\USERS\PHILIP\DROPBOX\CODE\TEMPLATES\POPUPTEMPLATE\DEBUG\VC120.PDB
C:\USERS\PHILIP\DROPBOX\CODE\TEMPLATES\POPUPTEMPLATE\DEBUG\VC120.IDB
C:\USERS\PHILIP\DROPBOX\CODE\TEMPLATES\POPUPTEMPLATE\DEBUG\DEBUG.OBJ
C:\USERS\PHILIP\DROPBOX\CODE\TEMPLATES\POPUPTEMPLATE\DEBUG\MAIN.OBJ
